{
    "name": "Eclaims",
    "alias": "eclaims",
    "description": "",
    "keywords": [],
    "active": 1,
    "order": 0,
    "providers": [
        "Modules\\Eclaims\\Providers\\EclaimsServiceProvider"
    ],
    "aliases":{},
    "files": [
        "start.php"
    ]
}