{
    "name": "Portal",
    "alias": "portal",
    "description": "",
    "keywords": [],
    "active": 1,
    "order": 0,
    "providers": [
        "Modules\\Portal\\Providers\\PortalServiceProvider"
    ],
    "aliases":{},
    "files": [
        "start.php"
    ]
}